Does a Sports Team’s Performance Affect Its City’s Murder Rate?
…
base <- raw %>%
  mutate(
    log_income     = log(median_household_income),
    log_home_value = log(median_home_value),
    log_pop        = log(total_population),
    # log the murder rate once here at the top -- every per-sport rate has no
    # zeros (min 0.28), so plain log() is safe. All downstream outcomes
    # (murder_rate in `long`/`enc`, city_murder_rate in `wide`) are therefore
    # already on the log scale and the model formulas need no log() themselves.
    across(ends_with("_murder_rate"), log)
  )

raw

# A tibble: 891 × 60
   GEOID  year sports_team_count has_NFL has_NBA has_MLB has_NHL has_pro_team
   <int> <dbl>             <dbl>   <dbl>   <dbl>   <dbl>   <dbl>        <dbl>
 1 11460  2012                 0       0       0       0       0            0
 2 11460  2013                 0       0       0       0       0            0
 3 11460  2014                 0       0       0       0       0            0
 4 11460  2015                 0       0       0       0       0            0
 5 11460  2016                 0       0       0       0       0            0
 6 11460  2017                 0       0       0       0       0            0
 7 11460  2018                 0       0       0       0       0            0
 8 11460  2019                 0       0       0       0       0            0
 9 11460  2020                 0       0       0       0       0            0
10 11460  2021                 0       0       0       0       0            0
# ℹ 881 more rows
# ℹ 52 more variables: power4_school_count <dbl>, has_power4_school <dbl>,
#   mlb_avg_temp <dbl>, mlb_win_pct <dbl>, mlb_make_playoffs <dbl>,
#   mlb_make_playoffs_prev <dbl>, mlb_murder_rate <dbl>, nfl_avg_temp <dbl>,
#   nfl_win_pct <dbl>, nfl_make_playoffs <dbl>, nfl_make_playoffs_prev <dbl>,
#   nfl_murder_rate <dbl>, nhl_avg_temp <dbl>, nhl_win_pct <dbl>,
#   nhl_make_playoffs <dbl>, nhl_make_playoffs_prev <dbl>, …
…
count(long, n_teams)

# A tibble: 5 × 2
  n_teams     n
    <int> <int>
1       1   451
2       2   143
3       3    62
4       4    96
5       5    50

long

# A tibble: 802 × 17
   GEOID  year n_teams murder_rate win_pct_z win_pct_prev_z make_playoffs
   <int> <dbl>   <int>       <dbl>     <dbl>          <dbl>         <dbl>
 1 11460  2013       1       0.425   -0.0767         0.283              0
 2 11460  2014       1       0.457   -0.642         -0.0767             0
 3 11460  2015       1       0.631    1.00          -0.642              0
 4 11460  2016       1       0.525    1.00           1.00               0
 5 11460  2017       1       0.673    0.283          1.00               0
 6 11460  2018       1       0.663    1.00           0.283              0
 7 11460  2019       1       0.770    0.643          1.00               0
 8 11460  2020       1       0.956   -1.03           0.643              0
 9 11460  2021       1       0.963    1.41          -1.03               1
10 11460  2022       1       1.09     1.75           1.41               1
# ℹ 792 more rows
# ℹ 10 more variables: make_playoffs_prev <dbl>, log_income <dbl>,
#   unemployment_rate <dbl>, poverty_rate <dbl>, log_home_value <dbl>,
#   log_pop <dbl>, race_black_nonhispanic_rate <dbl>,
#   hispanic_or_latino_rate <dbl>, bachelors_plus_rate <dbl>,
#   pop_18_to_64_rate <dbl>
…
